Including latent measurement models • specr
…
(results <- run_specs(df = d,
                      y = c("textual", "visual", "speed"),
                      x = c("ageyr"),
                      model = c("sem_custom"),
                      controls = c("grade"),
                      subsets = list(sex = unique(d$sex),
                                     school = unique(d$school)),
                      keep.results = T))
#> Warning: Problem with `mutate()` input `res`.
#> ℹ lavaan WARNING: some estimated ov variances are negative
#> ℹ Input `res` is `map2(.data$model, formula, ~do.call(.x, list(data = df, formula = .y)))`.
#> Warning in lav_object_post_check(object): lavaan WARNING: some estimated ov
#> variances are negative
#> # A tibble: 54 x 33
#>    x     y     model controls res   op    estimate std.error statistic p.value
#>    <chr> <chr> <chr> <chr>    <lis> <chr>    <dbl>     <dbl>     <dbl>   <dbl>
#>  1 ageyr text… sem_… grade    <lav… ~     -0.360      0.0763   -4.72   2.32e-6
#>  2 ageyr visu… sem_… grade    <lav… ~     -0.0581     0.0583   -0.997  3.19e-1
#>  3 ageyr speed sem_… grade    <lav… ~      0.0516     0.0629    0.821  4.12e-1
#>  4 ageyr text… sem_… no cova… <lav… ~     -0.183      0.0710   -2.57   1.01e-2
#>  5 ageyr visu… sem_… no cova… <lav… ~      0.00828    0.0412    0.201  8.41e-1
#>  6 ageyr speed sem_… no cova… <lav… ~      0.142      0.0581    2.44   1.48e-2
#>  7 ageyr text… sem_… grade    <lav… ~     -0.552      0.107    -5.15   2.54e-7
#>  8 ageyr visu… sem_… grade    <lav… ~     -0.447      0.116    -3.86   1.12e-4
#>  9 ageyr speed sem_… grade    <lav… ~      0.00661    0.0796    0.0830 9.34e-1
#> 10 ageyr text… sem_… no cova… <lav… ~     -0.252      0.0918   -2.75   6.02e-3
#> # … with 44 more rows, and 23 more variables: conf.low <dbl>, conf.high <dbl>,
#> #   std.lv <dbl>, std.all <dbl>, std.nox <dbl>, fit_agfi <dbl>, fit_AIC <dbl>,
#> #   fit_BIC <dbl>, fit_cfi <dbl>, fit_chisq <dbl>, fit_npar <dbl>,
#> #   fit_rmsea <dbl>, fit_rmsea.conf.high <dbl>, fit_srmr <dbl>, fit_tli <dbl>,
#> #   fit_converged <lgl>, fit_estimator <chr>, fit_ngroups <int>,
#> #   fit_missing_method <chr>, fit_nobs <int>, fit_norig <int>,
#> #   fit_nexcluded <int>, subsets <chr>
…
Some fit indices are already included in the result data frame by default. But we can also extract more specific fit indices (e.g., chi-squared value, srmr…) with a few code lines and plot the distribution across all specifications.

# Looking at included fit indices
results %>%
  dplyr::select(x, y, model, controls, subsets, 
                fit_cfi, fit_tli, fit_rmsea)
#> # A tibble: 54 x 8
#>    x     y       model      controls      subsets fit_cfi fit_tli fit_rmsea
#>    <chr> <chr>   <chr>      <chr>         <chr>     <dbl>   <dbl>     <dbl>
#>  1 ageyr textual sem_custom grade         sex = 1   1       1.01     0     
#>  2 ageyr visual  sem_custom grade         sex = 1   1       1.07     0     
#>  3 ageyr speed   sem_custom grade         sex = 1   1       1.02     0     
#>  4 ageyr textual sem_custom no covariates sex = 1   1       1.03     0     
#>  5 ageyr visual  sem_custom no covariates sex = 1   1       1.08     0     
#>  6 ageyr speed   sem_custom no covariates sex = 1   1       1.03     0     
#>  7 ageyr textual sem_custom grade         sex = 2   0.994   0.986    0.0547
#>  8 ageyr visual  sem_custom grade         sex = 2   0.979   0.954    0.0534
#>  9 ageyr speed   sem_custom grade         sex = 2   0.857   0.677    0.167 
#> 10 ageyr textual sem_custom no covariates sex = 2   0.998   0.995    0.0375
#> # … with 44 more rows
…
