Including random effects • specr
…
library(specr)
library(purrr)
library(dplyr)
library(ggplot2)
library(gapminder)

# Recode some variables
gapminder <- gapminder %>%
  mutate(gdpPercap_log = log(gdpPercap),
         pop = pop/1000)

# Check data
gapminder
#> # A tibble: 1,704 x 7
#>    country     continent  year lifeExp    pop gdpPercap gdpPercap_log
#>    <fct>       <fct>     <int>   <dbl>  <dbl>     <dbl>         <dbl>
#>  1 Afghanistan Asia       1952    28.8  8425.      779.          6.66
#>  2 Afghanistan Asia       1957    30.3  9241.      821.          6.71
#>  3 Afghanistan Asia       1962    32.0 10267.      853.          6.75
#>  4 Afghanistan Asia       1967    34.0 11538.      836.          6.73
#>  5 Afghanistan Asia       1972    36.1 13079.      740.          6.61
#>  6 Afghanistan Asia       1977    38.4 14880.      786.          6.67
#>  7 Afghanistan Asia       1982    39.9 12882.      978.          6.89
#>  8 Afghanistan Asia       1987    40.8 13868.      852.          6.75
#>  9 Afghanistan Asia       1992    41.7 16318.      649.          6.48
#> 10 Afghanistan Asia       1997    41.8 22227.      635.          6.45
#> # … with 1,694 more rows
…
