An introduction to specr • specr
…
# Run specification curve analysis
results <- run_specs(df = example_data, 
                     y = c("y1", "y2"), 
                     x = c("x1", "x2"), 
                     model = c("lm", "lm_gauss"), 
                     controls = c("c1", "c2"), 
                     subsets = list(group1 = unique(example_data$group1),
                                    group2 = unique(example_data$group2)))

# Check
results
#> # A tibble: 384 x 12
#>    x     y     model controls estimate std.error statistic  p.value conf.low
#>    <chr> <chr> <chr> <chr>       <dbl>     <dbl>     <dbl>    <dbl>    <dbl>
#>  1 x1    y1    lm    c1 + c2     4.95      0.525     9.43  3.11e-18    3.92 
#>  2 x2    y1    lm    c1 + c2     6.83      0.321    21.3   1.20e-57    6.20 
#>  3 x1    y2    lm    c1 + c2    -0.227     0.373    -0.607 5.44e- 1   -0.961
#>  4 x2    y2    lm    c1 + c2     0.985     0.324     3.04  2.62e- 3    0.347
#>  5 x1    y1    lm_g… c1 + c2     4.95      0.525     9.43  3.11e-18    3.92 
#>  6 x2    y1    lm_g… c1 + c2     6.83      0.321    21.3   1.20e-57    6.20 
#>  7 x1    y2    lm_g… c1 + c2    -0.227     0.373    -0.607 5.44e- 1   -0.958
#>  8 x2    y2    lm_g… c1 + c2     0.985     0.324     3.04  2.62e- 3    0.350
#>  9 x1    y1    lm    c1          5.53      0.794     6.97  2.95e-11    3.96 
#> 10 x2    y1    lm    c1          8.07      0.557    14.5   6.90e-35    6.98 
#> # … with 374 more rows, and 3 more variables: conf.high <dbl>, obs <int>,
#> #   subsets <chr>
…
