Plot specification curve and analytic choices — plot.specr.object • specr
…
# Run analysis
results <- specr(specs)

# Resulting data frame with estimates
as_tibble(results)  # This will be used for plotting
#> # A tibble: 192 × 28
#>    x     y     model controls subsets group1 group2 formula model_function term 
#>    <chr> <chr> <chr> <chr>    <chr>   <fct>  <fct>  <glue>  <list>         <chr>
#>  1 x1    y1    lm    no cova… middle… middle female y1 ~ x… <fn>           x1   
#>  2 x1    y1    lm    no cova… old & … old    female y1 ~ x… <fn>           x1   
#>  3 x1    y1    lm    no cova… young … young  female y1 ~ x… <fn>           x1   
#>  4 x1    y1    lm    no cova… female  NA     female y1 ~ x… <fn>           x1   
#>  5 x1    y1    lm    no cova… middle… middle male   y1 ~ x… <fn>           x1   
#>  6 x1    y1    lm    no cova… old & … old    male   y1 ~ x… <fn>           x1   
#>  7 x1    y1    lm    no cova… young … young  male   y1 ~ x… <fn>           x1   
#>  8 x1    y1    lm    no cova… male    NA     male   y1 ~ x… <fn>           x1   
#>  9 x1    y1    lm    no cova… middle  middle NA     y1 ~ x… <fn>           x1   
#> 10 x1    y1    lm    no cova… old     old    NA     y1 ~ x… <fn>           x1   
#> # … with 182 more rows, and 18 more variables: estimate <dbl>, std.error <dbl>,
#> #   statistic <dbl>, p.value <dbl>, conf.low <dbl>, conf.high <dbl>,
#> #   fit_r.squared <dbl>, fit_adj.r.squared <dbl>, fit_sigma <dbl>,
#> #   fit_statistic <dbl>, fit_p.value <dbl>, fit_df <dbl>, fit_logLik <dbl>,
#> #   fit_AIC <dbl>, fit_BIC <dbl>, fit_deviance <dbl>, fit_df.residual <int>,
#> #   fit_nobs <int>
…
