Estimate all specifications — run_specs • specr
…
    Examples

# run specification curve analysis
results <- run_specs(df = example_data,
                     y = c("y1", "y2"),
                     x = c("x1", "x2"),
                     model = c("lm"),
                     controls = c("c1", "c2"),
                     subsets = list(group1 = unique(example_data$group1),
                                    group2 = unique(example_data$group2)))

# Check results frame
results
#> # A tibble: 192 × 23
#>    x     y     model controls estimate std.error statistic  p.value conf.low
#>    <chr> <chr> <chr> <chr>       <dbl>     <dbl>     <dbl>    <dbl>    <dbl>
#>  1 x1    y1    lm    c1 + c2    4.95       0.525    9.43   3.11e-18    3.92 
#>  2 x2    y1    lm    c1 + c2    6.83       0.321   21.3    1.20e-57    6.20 
#>  3 x1    y2    lm    c1 + c2   -0.227      0.373   -0.607  5.44e- 1   -0.961
#>  4 x2    y2    lm    c1 + c2    0.985      0.324    3.04   2.62e- 3    0.347
#>  5 x1    y1    lm    c1         5.53       0.794    6.97   2.95e-11    3.96 
#>  6 x2    y1    lm    c1         8.07       0.557   14.5    6.90e-35    6.98 
#>  7 x1    y2    lm    c1         0.0461     0.466    0.0989 9.21e- 1   -0.872
#>  8 x2    y2    lm    c1         1.61       0.394    4.10   5.72e- 5    0.837
#>  9 x1    y1    lm    c2         5.15       0.625    8.24   9.95e-15    3.92 
#> 10 x2    y1    lm    c2         6.50       0.466   13.9    5.38e-33    5.58 
#> # … with 182 more rows, and 14 more variables: conf.high <dbl>,
#> #   fit_r.squared <dbl>, fit_adj.r.squared <dbl>, fit_sigma <dbl>,
#> #   fit_statistic <dbl>, fit_p.value <dbl>, fit_df <dbl>, fit_logLik <dbl>,
#> #   fit_AIC <dbl>, fit_BIC <dbl>, fit_deviance <dbl>, fit_df.residual <int>,
#> #   fit_nobs <int>, subsets <chr>
…
