Summarise the specification curve results — summarise_specs • specr
…
# Basic example
summarise_specs(results)
#> # A tibble: 1 x 7
#>   median   mad   min   max   q25   q75   obs
#>    <dbl> <dbl> <dbl> <dbl> <dbl> <dbl> <dbl>
#> 1   3.59  4.56 -2.05  9.58  1.03  7.63   123

# Summary of specific analytical choices
summarise_specs(results, group = c("subsets", "x"))
#> Joining, by = c("subsets", "x")
#> # A tibble: 24 x 9
#> # Groups:   subsets [12]
#>    subsets                 x     median   mad     min   max     q25   q75   obs
#>    <chr>                   <chr>  <dbl> <dbl>   <dbl> <dbl>   <dbl> <dbl> <dbl>
#>  1 all                     x1      3.34 4.71  -0.0545  6.92  0.283   6.50   500
#>  2 all                     x2      4.48 4.66   1.09    8.14  1.34    7.67   500
#>  3 group1 = 0              x1      2.65 3.90  -0.227   5.85  0.0336  5.24   250
#>  4 group1 = 0              x2      4.05 4.33   0.653   8.07  1.29    7.08   250
#>  5 group1 = 0 & group2 = A x1      3.30 0.716  2.26    4.24  2.80    3.64    72
#>  6 group1 = 0 & group2 = A x2      4.06 4.24   0.482   8.20  1.52    6.88    72
#>  7 group1 = 0 & group2 = B x1      3.86 4.63   0.0819  8.96  1.06    7.10    76
#>  8 group1 = 0 & group2 = B x2      4.21 4.50   0.603   8.75  1.33    7.40    76
#>  9 group1 = 0 & group2 = C x1      1.41 4.72  -1.92    4.92 -1.76    4.61   102
#> 10 group1 = 0 & group2 = C x2      3.72 4.58   0.299   7.57  0.753   6.58   102
#> # … with 14 more rows
…
